rtl/scorer testing/tb_node_scorer.vcd
$date
	Thu Apr 23 15:05:38 2026
$end
$version
	Icarus Verilog
$end
$timescale
	1ps
$end
$scope module tb_node_scorer $end
$var wire 10 ! mem_addr [9:0] $end
$var wire 32 " final_score [31:0] $end
$var wire 1 # done $end
$var reg 32 $ allowed_parents [31:0] $end
$var reg 1 % clk $end
$var reg 32 & mem_local_score [31:0] $end
$var reg 32 ' mem_parent_mask [31:0] $end
$var reg 10 ( num_cands [9:0] $end
$var reg 1 ) rst_n $end
$var reg 1 * start $end
$var reg 10 + start_addr [9:0] $end
$scope module dut $end
$var wire 32 , allowed_parents [31:0] $end
$var wire 1 % clk $end
$var wire 32 - mem_local_score [31:0] $end
$var wire 32 . mem_parent_mask [31:0] $end
$var wire 10 / num_cands [9:0] $end
$var wire 1 ) rst_n $end
$var wire 1 * start $end
$var wire 10 0 start_addr [9:0] $end
$var wire 32 1 log_add_out [31:0] $end
$var parameter 3 2 DONE $end
$var parameter 3 3 FETCH_ADDR $end
$var parameter 3 4 FETCH_DATA $end
$var parameter 3 5 IDLE $end
$var parameter 32 6 MIN_SCORE $end
$var parameter 3 7 WAIT_LOGADD_1 $end
$var parameter 3 8 WAIT_LOGADD_2 $end
$var parameter 3 9 WAIT_LOGADD_3 $end
$var reg 32 : accum_score [31:0] $end
$var reg 10 ; cands_checked [9:0] $end
$var reg 1 # done $end
$var reg 32 < final_score [31:0] $end
$var reg 1 = first_valid_found $end
$var reg 10 > mem_addr [9:0] $end
$var reg 3 ? state [2:0] $end
$scope module log_add_inst $end
$var wire 32 @ a [31:0] $end
$var wire 32 A b [31:0] $end
$var wire 1 % clk $end
$var wire 1 ) rst_n $end
$var wire 32 B lut_val_s2 [31:0] $end
$var reg 32 C abs_diff_s1 [31:0] $end
$var reg 1 D force_zero_s2 $end
$var reg 32 E max_val_s1 [31:0] $end
$var reg 32 F max_val_s2 [31:0] $end
$var reg 32 G result [31:0] $end
$scope module lut_inst $end
$var wire 10 H addr [9:0] $end
$var wire 1 % clk $end
$var reg 32 I data_out [31:0] $end
$upscope $end
$upscope $end
$upscope $end
$upscope $end
$enddefinitions $end
$comment Show the parameter values. $end
$dumpall
b101 9
b100 8
b11 7
b10000000000000000000000000000000 6
b0 5
b10 4
b1 3
b110 2
$end
#0
$dumpvars
bx I
b0 H
b0 G
b0 F
b0 E
0D
b0 C
bx B
bx A
b10000000000000000000000000000000 @
b0 ?
b0 >
0=
b10000000000000000000000000000000 <
b0 ;
b10000000000000000000000000000000 :
b0 1
b0 0
b0 /
bx .
bx -
b0 ,
b0 +
0*
0)
b0 (
bx '
bx &
0%
b0 $
0#
b10000000000000000000000000000000 "
b0 !
$end
#5000
b1011000101110010 B
b1011000101110010 I
b1 '
b1 .
b10100000000000000000 &
b10100000000000000000 -
b10100000000000000000 A
1%
#10000
0%
#15000
b1010000000 H
b1011000101110010 1
b1011000101110010 G
b10000000000010100000000000000000 C
b10100000000000000000 E
1%
1)
#20000
0%
#25000
b11 B
b11 I
1D
b10100000000000000000 F
1*
1%
b11111111111111111111111111111111 $
b11111111111111111111111111111111 ,
#30000
0%
#35000
b10100000000000000000 1
b10100000000000000000 G
1#
1%
#40000
0%
#45000
1#
0*
1%
#50000
0%
#55000
0#
1%
#60000
0%
#65000
1%
#70000
0%
#75000
b1 $
b1 ,
b100 (
b100 /
1%
#80000
0%
#85000
1*
1%
#90000
0%
#95000
b1 ?
1%
#100000
0%
#105000
b10 ?
1%
#110000
0%
#115000
b1 ?
b1 ;
b1 !
b1 >
1=
b10100000000000000000 :
b10100000000000000000 @
1%
#120000
0%
#125000
b0 H
b10 '
b10 .
b1010000000000000000 &
b1010000000000000000 -
b1010000000000000000 A
b10 ?
b0 C
1%
#130000
0%
#135000
b101000000 H
b1011000101110010 B
b1011000101110010 I
0D
b1010000000000000000 C
b1 ?
b10 ;
b10 !
b10 >
1%
#140000
0%
#145000
b110111000 B
b110111000 I
b100 '
b100 .
b10 ?
b10101011000101110010 1
b10101011000101110010 G
1%
#150000
0%
#155000
b10100000000110111000 1
b10100000000110111000 G
b1 ?
b11 ;
b11 !
b11 >
1%
#160000
0%
#165000
b1000 '
b1000 .
b0 &
b0 -
b0 A
b10 ?
1%
#170000
0%
#175000
b1010000000 H
b10100000000000000000 C
b110 ?
1%
#180000
0%
#185000
b11 B
b11 I
1#
b10100000000000000000 "
b10100000000000000000 <
1%
#190000
0%
#195000
b10100000000000000011 1
b10100000000000000011 G
0*
1%
#200000
0%
#205000
b0 ?
1%
#210000
0%
#215000
0#
1%
#220000
0%
#225000
b110 $
b110 ,
b11 (
b11 /
b1 +
b1 0
1%
#230000
0%
#235000
1*
1%
#240000
0%
#245000
b1 ?
0=
b10000000000000000000000000000000 :
b10000000000000000000000000000000 @
b0 ;
b1 !
b1 >
1%
#250000
0%
#255000
b0 H
b10 '
b10 .
b1010000000000000000 &
b1010000000000000000 -
b1010000000000000000 A
b10000000000000000000000000000000 C
b0 E
b10 ?
1%
#260000
0%
#265000
b101000000 H
b1011000101110010 B
b1011000101110010 I
b1 ?
b1 ;
b10 !
b10 >
1=
b1010000000000000000 :
b1010000000000000000 @
1D
b0 F
b10000000000001010000000000000000 C
b1010000000000000000 E
1%
#270000
0%
#275000
b0 H
b100 '
b100 .
b110111000 B
b110111000 I
b0 1
b0 G
b1010000000000000000 F
b0 C
b10 ?
1%
#280000
0%
#285000
b1011000101110010 B
b1011000101110010 I
b11 ?
b1010000000000000000 1
b1010000000000000000 G
0D
1%
#290000
0%
#295000
b1011011000101110010 1
b1011011000101110010 G
b100 ?
1%
#300000
0%
#305000
b101 ?
1%
#310000
0%
#315000
b1 ?
b10 ;
b11 !
b11 >
b1011011000101110010 :
b1011011000101110010 @
1%
#320000
0%
#325000
b101100 H
b1000 '
b1000 .
b0 &
b0 -
b0 A
b10 ?
b1011000101110010 C
b1011011000101110010 E
1%
#330000
0%
#335000
b101101100 H
b110100001001000 B
b110100001001000 I
b1011011000101110010 F
b1011011000101110010 C
b110 ?
1%
#340000
0%
#345000
b11011110 B
b11011110 I
1#
b1011011000101110010 "
b1011011000101110010 <
b1100001100110111010 1
b1100001100110111010 G
1%
#350000
0%
#355000
b1011011001001010000 1
b1011011001001010000 G
0*
1%
#360000
0%
#365000
b0 ?
1%
#370000
0%
#375000
0#
1%
