rtl/tb_log_add_piecewise.vcd
$date
	Thu Apr 23 11:13:33 2026
$end
$version
	Icarus Verilog
$end
$timescale
	1ps
$end
$scope module tb_log_add_piecewise $end
$var wire 24 ! result_update [23:0] $end
$var wire 24 " result_chain [23:0] $end
$var wire 24 # fx_lut [23:0] $end
$var parameter 32 $ ADDR_W $end
$var parameter 32 % CHAIN_CASES $end
$var parameter 32 & CHAIN_INPUTS $end
$var parameter 32 ' CHAIN_VEC_W $end
$var parameter 32 ( DATA_W $end
$var parameter 32 ) FRAC_BITS $end
$var parameter 32 * LUT_CASES $end
$var parameter 32 + LUT_VEC_W $end
$var parameter 32 , UPDATE_CASES $end
$var parameter 32 - UPDATE_VEC_W $end
$var reg 24 . ls_next_update [23:0] $end
$var reg 24 / score_cur_update [23:0] $end
$var reg 24 0 x_lut [23:0] $end
$scope module dut_chain $end
$var wire 24 1 result [23:0] $end
$var parameter 32 2 ADDR_W $end
$var parameter 32 3 DATA_W $end
$var parameter 32 4 FRAC_BITS $end
$var parameter 32 5 LUT_NEG_INT $end
$var parameter 32 6 LUT_POS_INT $end
$var parameter 32 7 N_INPUTS $end
$scope begin gen_chain[0] $end
$var parameter 2 8 g $end
$scope module update_inst $end
$var wire 24 9 ls_next [23:0] $end
$var wire 24 : score_cur [23:0] $end
$var wire 24 ; x_value [23:0] $end
$var wire 24 < result [23:0] $end
$var wire 24 = fx_value [23:0] $end
$var parameter 32 > ADDR_W $end
$var parameter 32 ? DATA_W $end
$var parameter 32 @ FRAC_BITS $end
$var parameter 32 A LUT_NEG_INT $end
$var parameter 32 B LUT_POS_INT $end
$var parameter 25 C MAX_WIDE $end
$var parameter 25 D MIN_WIDE $end
$scope function sat_add $end
$upscope $end
$scope function sat_from_wide $end
$upscope $end
$scope function sat_sub $end
$upscope $end
$scope module logadd_lut_inst $end
$var wire 24 E x_in [23:0] $end
$var wire 10 F lut_addr [9:0] $end
$var parameter 32 G ADDR_W $end
$var parameter 32 H DATA_W $end
$var parameter 32 I FRAC_BITS $end
$var parameter 24 J LUT_NEG_BOUND $end
$var parameter 32 K LUT_NEG_BOUND_INT $end
$var parameter 32 L LUT_NEG_INT $end
$var parameter 24 M LUT_POS_BOUND $end
$var parameter 32 N LUT_POS_BOUND_INT $end
$var parameter 32 O LUT_POS_INT $end
$var parameter 32 P RANGE_INT $end
$var parameter 32 Q STEP_SHIFT $end
$var reg 24 R fx_out [23:0] $end
$var reg 24 S lut_data [23:0] $end
$scope function calc_addr $end
$upscope $end
$scope function trunc_addr $end
$upscope $end
$upscope $end
$upscope $end
$upscope $end
$scope begin gen_chain[1] $end
$var parameter 2 T g $end
$scope module update_inst $end
$var wire 24 U ls_next [23:0] $end
$var wire 24 V score_cur [23:0] $end
$var wire 24 W x_value [23:0] $end
$var wire 24 X result [23:0] $end
$var wire 24 Y fx_value [23:0] $end
$var parameter 32 Z ADDR_W $end
$var parameter 32 [ DATA_W $end
$var parameter 32 \ FRAC_BITS $end
$var parameter 32 ] LUT_NEG_INT $end
$var parameter 32 ^ LUT_POS_INT $end
$var parameter 25 _ MAX_WIDE $end
$var parameter 25 ` MIN_WIDE $end
$scope function sat_add $end
$upscope $end
$scope function sat_from_wide $end
$upscope $end
$scope function sat_sub $end
$upscope $end
$scope module logadd_lut_inst $end
$var wire 24 a x_in [23:0] $end
$var wire 10 b lut_addr [9:0] $end
$var parameter 32 c ADDR_W $end
$var parameter 32 d DATA_W $end
$var parameter 32 e FRAC_BITS $end
$var parameter 24 f LUT_NEG_BOUND $end
$var parameter 32 g LUT_NEG_BOUND_INT $end
$var parameter 32 h LUT_NEG_INT $end
$var parameter 24 i LUT_POS_BOUND $end
$var parameter 32 j LUT_POS_BOUND_INT $end
$var parameter 32 k LUT_POS_INT $end
$var parameter 32 l RANGE_INT $end
$var parameter 32 m STEP_SHIFT $end
$var reg 24 n fx_out [23:0] $end
$var reg 24 o lut_data [23:0] $end
$scope function calc_addr $end
$upscope $end
$scope function trunc_addr $end
$upscope $end
$upscope $end
$upscope $end
$upscope $end
$scope begin gen_chain[2] $end
$var parameter 3 p g $end
$scope module update_inst $end
$var wire 24 q ls_next [23:0] $end
$var wire 24 r score_cur [23:0] $end
$var wire 24 s x_value [23:0] $end
$var wire 24 t result [23:0] $end
$var wire 24 u fx_value [23:0] $end
$var parameter 32 v ADDR_W $end
$var parameter 32 w DATA_W $end
$var parameter 32 x FRAC_BITS $end
$var parameter 32 y LUT_NEG_INT $end
$var parameter 32 z LUT_POS_INT $end
$var parameter 25 { MAX_WIDE $end
$var parameter 25 | MIN_WIDE $end
$scope function sat_add $end
$upscope $end
$scope function sat_from_wide $end
$upscope $end
$scope function sat_sub $end
$upscope $end
$scope module logadd_lut_inst $end
$var wire 24 } x_in [23:0] $end
$var wire 10 ~ lut_addr [9:0] $end
$var parameter 32 !" ADDR_W $end
$var parameter 32 "" DATA_W $end
$var parameter 32 #" FRAC_BITS $end
$var parameter 24 $" LUT_NEG_BOUND $end
$var parameter 32 %" LUT_NEG_BOUND_INT $end
$var parameter 32 &" LUT_NEG_INT $end
$var parameter 24 '" LUT_POS_BOUND $end
$var parameter 32 (" LUT_POS_BOUND_INT $end
$var parameter 32 )" LUT_POS_INT $end
$var parameter 32 *" RANGE_INT $end
$var parameter 32 +" STEP_SHIFT $end
$var reg 24 ," fx_out [23:0] $end
$var reg 24 -" lut_data [23:0] $end
$scope function calc_addr $end
$upscope $end
$scope function trunc_addr $end
$upscope $end
$upscope $end
$upscope $end
$upscope $end
$upscope $end
$scope module dut_lut $end
$var wire 24 ." x_in [23:0] $end
$var wire 10 /" lut_addr [9:0] $end
$var parameter 32 0" ADDR_W $end
$var parameter 32 1" DATA_W $end
$var parameter 32 2" FRAC_BITS $end
$var parameter 24 3" LUT_NEG_BOUND $end
$var parameter 32 4" LUT_NEG_BOUND_INT $end
$var parameter 32 5" LUT_NEG_INT $end
$var parameter 24 6" LUT_POS_BOUND $end
$var parameter 32 7" LUT_POS_BOUND_INT $end
$var parameter 32 8" LUT_POS_INT $end
$var parameter 32 9" RANGE_INT $end
$var parameter 32 :" STEP_SHIFT $end
$var reg 24 ;" fx_out [23:0] $end
$var reg 24 <" lut_data [23:0] $end
$scope function calc_addr $end
$upscope $end
$scope function trunc_addr $end
$upscope $end
$upscope $end
$scope module dut_update $end
$var wire 24 =" ls_next [23:0] $end
$var wire 24 >" score_cur [23:0] $end
$var wire 24 ?" x_value [23:0] $end
$var wire 24 @" result [23:0] $end
$var wire 24 A" fx_value [23:0] $end
$var parameter 32 B" ADDR_W $end
$var parameter 32 C" DATA_W $end
$var parameter 32 D" FRAC_BITS $end
$var parameter 32 E" LUT_NEG_INT $end
$var parameter 32 F" LUT_POS_INT $end
$var parameter 25 G" MAX_WIDE $end
$var parameter 25 H" MIN_WIDE $end
$scope function sat_add $end
$upscope $end
$scope function sat_from_wide $end
$upscope $end
$scope function sat_sub $end
$upscope $end
$scope module logadd_lut_inst $end
$var wire 24 I" x_in [23:0] $end
$var wire 10 J" lut_addr [9:0] $end
$var parameter 32 K" ADDR_W $end
$var parameter 32 L" DATA_W $end
$var parameter 32 M" FRAC_BITS $end
$var parameter 24 N" LUT_NEG_BOUND $end
$var parameter 32 O" LUT_NEG_BOUND_INT $end
$var parameter 32 P" LUT_NEG_INT $end
$var parameter 24 Q" LUT_POS_BOUND $end
$var parameter 32 R" LUT_POS_BOUND_INT $end
$var parameter 32 S" LUT_POS_INT $end
$var parameter 32 T" RANGE_INT $end
$var parameter 32 U" STEP_SHIFT $end
$var reg 24 V" fx_out [23:0] $end
$var reg 24 W" lut_data [23:0] $end
$scope function calc_addr $end
$upscope $end
$scope function trunc_addr $end
$upscope $end
$upscope $end
$upscope $end
$scope task clear_inputs $end
$upscope $end
$scope task run_chain_tests $end
$upscope $end
$scope task run_lut_tests $end
$upscope $end
$scope task run_update_tests $end
$upscope $end
$upscope $end
$enddefinitions $end
$comment Show the parameter values. $end
$dumpall
b1 U"
b10000 T"
b1000 S"
b10000000000 R"
b10000000000 Q"
b11111111111111111111111111111000 P"
b11111111111111111111110000000000 O"
b111111111111110000000000 N"
b111 M"
b11000 L"
b1010 K"
b1100000000000000000000000 H"
b11111111111111111111111 G"
b1000 F"
b11111111111111111111111111111000 E"
b111 D"
b11000 C"
b1010 B"
b1 :"
b10000 9"
b1000 8"
b10000000000 7"
b10000000000 6"
b11111111111111111111111111111000 5"
b11111111111111111111110000000000 4"
b111111111111110000000000 3"
b111 2"
b11000 1"
b1010 0"
b1 +"
b10000 *"
b1000 )"
b10000000000 ("
b10000000000 '"
b11111111111111111111111111111000 &"
b11111111111111111111110000000000 %"
b111111111111110000000000 $"
b111 #"
b11000 ""
b1010 !"
b1100000000000000000000000 |
b11111111111111111111111 {
b1000 z
b11111111111111111111111111111000 y
b111 x
b11000 w
b1010 v
b10 p
b1 m
b10000 l
b1000 k
b10000000000 j
b10000000000 i
b11111111111111111111111111111000 h
b11111111111111111111110000000000 g
b111111111111110000000000 f
b111 e
b11000 d
b1010 c
b1100000000000000000000000 `
b11111111111111111111111 _
b1000 ^
b11111111111111111111111111111000 ]
b111 \
b11000 [
b1010 Z
b1 T
b1 Q
b10000 P
b1000 O
b10000000000 N
b10000000000 M
b11111111111111111111111111111000 L
b11111111111111111111110000000000 K
b111111111111110000000000 J
b111 I
b11000 H
b1010 G
b1100000000000000000000000 D
b11111111111111111111111 C
b1000 B
b11111111111111111111111111111000 A
b111 @
b11000 ?
b1010 >
b0 8
b100 7
b1000 6
b11111111111111111111111111111000 5
b111 4
b11000 3
b1010 2
b1001000 -
b110000 ,
b110000 +
b1000000 *
b111 )
b11000 (
b1111000 '
b100 &
b101000 %
b1010 $
$end
#0
$dumpvars
b1011001 W"
b1011001 V"
b1000000000 J"
b0 I"
b1011001 A"
b1011001 @"
b0 ?"
b0 >"
b0 ="
b0 <"
b0 ;"
b0 /"
b111111111001110000000000 ."
b100101 -"
b100101 ,"
b110111010 ~
b111111111111111101110100 }
b100101 u
b10110001 t
b111111111111111101110100 s
b10001100 r
b0 q
b110011 o
b110011 n
b111010011 b
b111111111111111110100111 a
b110011 Y
b10001100 X
b111111111111111110100111 W
b1011001 V
b0 U
b1011001 S
b1011001 R
b1000000000 F
b0 E
b1011001 =
b1011001 <
b0 ;
b0 :
b0 9
b10110001 1
b111111111001110000000000 0
b0 /
b0 .
b0 #
b10110001 "
b1011001 !
$end
#1000
b111111111111011000000000 0
b111111111111011000000000 ."
#2000
b111111111111101111000000 0
b111111111111101111000000 ."
#3000
b111111111111110000000000 0
b111111111111110000000000 ."
#4000
b111111111111110000000001 0
b111111111111110000000001 ."
#5000
b100000 /"
b111111111111110001000000 0
b111111111111110001000000 ."
#6000
b101000 #
b101000 ;"
b101000 <"
b111000000 /"
b111111111111111110000000 0
b111111111111111110000000 ."
#7000
b111101 #
b111101 ;"
b111100000 /"
b111101 <"
b111111111111111111000000 0
b111111111111111111000000 ."
#8000
b1011001 #
b1011001 ;"
b1000000000 /"
b1011001 <"
b0 0
b0 ."
#9000
b1111101 #
b1111101 ;"
b1000100000 /"
b1111101 <"
b1000000 0
b1000000 ."
#10000
b10101000 #
b10101000 ;"
b1001000000 /"
b10101000 <"
b10000000 0
b10000000 ."
#11000
b1111000000 #
b1111000000 ;"
b1111100000 /"
b1111000000 <"
b1111000000 0
b1111000000 ."
#12000
b1111111110 #
b1111111110 ;"
b1111111111 /"
b1111111110 <"
b1111111110 0
b1111111110 ."
#13000
b0 /"
b10000000000 #
b10000000000 ;"
b0 <"
b10000000000 0
b10000000000 ."
#14000
b10001000000 #
b10001000000 ;"
b10001000000 0
b10001000000 ."
#15000
b110010000000000 #
b110010000000000 ;"
b110010000000000 0
b110010000000000 ."
#16000
b0 #
b0 ;"
b111111111111101001011101 0
b111111111111101001011101 ."
#17000
b10101001100010000010 #
b10101001100010000010 ;"
b10101001100010000010 0
b10101001100010000010 ."
#18000
b0 #
b0 ;"
b111111111111011011011111 0
b111111111111011011011111 ."
#19000
b111111111111001011100111 0
b111111111111001011100111 ."
#20000
b111001010010 #
b111001010010 ;"
b111001010010 0
b111001010010 ."
#21000
b1001111001 <"
b1100111100 /"
b1001111001 #
b1001111001 ;"
b1001111000 0
b1001111000 ."
#22000
b0 /"
b0 #
b0 ;"
b0 <"
b111101011010011000100011 0
b111101011010011000100011 ."
#23000
b111111111111001111000101 0
b111111111111001111000101 ."
#24000
b111111111111001101001100 0
b111111111111001101001100 ."
#25000
b110001100 #
b110001100 ;"
b110001100 <"
b1011000011 /"
b110000111 0
b110000111 ."
#26000
b0 /"
b111111011100010 #
b111111011100010 ;"
b0 <"
b111111011100010 0
b111111011100010 ."
#27000
b1010111101 <"
b1101011110 /"
b1010111101 #
b1010111101 ;"
b1010111101 0
b1010111101 ."
#28000
b0 /"
b10011000011001101110 #
b10011000011001101110 ;"
b0 <"
b10011000011001101110 0
b10011000011001101110 ."
#29000
b0 #
b0 ;"
b111110010111001100101101 0
b111110010111001100101101 ."
#30000
b111110100000100001000011 0
b111110100000100001000011 ."
#31000
b110001010000010010111001 0
b110001010000010010111001 ."
#32000
b1110100001001110 #
b1110100001001110 ;"
b1110100001001110 0
b1110100001001110 ."
#33000
b0 #
b0 ;"
b111111011010100010110111 0
b111111011010100010110111 ."
#34000
b111000101000110100111100 0
b111000101000110100111100 ."
#35000
b110011100101000100100 #
b110011100101000100100 ;"
b110011100101000100100 0
b110011100101000100100 ."
#36000
b0 #
b0 ;"
b111110010000101010001001 0
b111110010000101010001001 ."
#37000
b101010001010011100 #
b101010001010011100 ;"
b101010001010011100 0
b101010001010011100 ."
#38000
b0 #
b0 ;"
b111111111111101101100000 0
b111111111111101101100000 ."
#39000
b111110100011010101011100 0
b111110100011010101011100 ."
#40000
b111111111111001000000111 0
b111111111111001000000111 ."
#41000
b1010001101110111000001 #
b1010001101110111000001 ;"
b1010001101110111000001 0
b1010001101110111000001 ."
#42000
b0 #
b0 ;"
b111111101010110100110000 0
b111111101010110100110000 ."
#43000
b111010100110 #
b111010100110 ;"
b111010100110 0
b111010100110 ."
#44000
b10100010011 #
b10100010011 ;"
b10100010011 0
b10100010011 ."
#45000
b0 #
b0 ;"
b111110000100000001100000 0
b111110000100000001100000 ."
#46000
b110100000001000000001011 0
b110100000001000000001011 ."
#47000
b100110101111011110 #
b100110101111011110 ;"
b100110101111011110 0
b100110101111011110 ."
#48000
b1011111110111110011100 #
b1011111110111110011100 ;"
b1011111110111110011100 0
b1011111110111110011100 ."
#49000
b0 #
b0 ;"
b110011010100000010100111 0
b110011010100000010100111 ."
#50000
b111110110010101001110000 0
b111110110010101001110000 ."
#51000
b111111111111010100110010 0
b111111111111010100110010 ."
#52000
b1110010111011010101110 #
b1110010111011010101110 ;"
b1110010111011010101110 0
b1110010111011010101110 ."
#53000
b0 #
b0 ;"
b111111111111000011010001 0
b111111111111000011010001 ."
#54000
b1110001110111011111 #
b1110001110111011111 ;"
b1110001110111011111 0
b1110001110111011111 ."
#55000
b1010111001110111111 #
b1010111001110111111 ;"
b1010111001110111111 0
b1010111001110111111 ."
#56000
b0 #
b0 ;"
b110100100111001001011111 0
b110100100111001001011111 ."
#57000
b111111111111101011110111 0
b111111111111101011110111 ."
#58000
b111110110110010011011100 0
b111110110110010011011100 ."
#59000
b110000110111011000011101 0
b110000110111011000011101 ."
#60000
b100011101110101011 #
b100011101110101011 ;"
b100011101110101011 0
b100011101110101011 ."
#61000
b10111001 <"
b1001001011 /"
b10111001 #
b10111001 ;"
b10010111 0
b10010111 ."
#62000
b100011001 #
b100011001 ;"
b1010000101 /"
b100011001 <"
b100001011 0
b100001011 ."
#63000
b1110100000 #
b1110100000 ;"
b1111010000 /"
b1110100000 <"
b1110100000 0
b1110100000 ."
#64000
b101000 A"
b101000 V"
b111000000 J"
b1011001 #
b1011001 ;"
b101000 W"
b1000000000 /"
b111111111111111110000000 ?"
b111111111111111110000000 I"
b110101010000100000101000 !
b110101010000100000101000 @"
b1011001 <"
b110101010000011110000000 .
b110101010000011110000000 ="
b110101010000100000000000 /
b110101010000100000000000 >"
b0 0
b0 ."
#65000
b110101010000100001111101 !
b110101010000100001111101 @"
b1111101 A"
b1111101 V"
b1000100000 J"
b1111101 W"
b1000000 ?"
b1000000 I"
b110101010000100001000000 .
b110101010000100001000000 ="
#66000
b110101010000100000000000 !
b110101010000100000000000 @"
b0 J"
b0 A"
b0 V"
b0 W"
b111111111111110000000000 ?"
b111111111111110000000000 I"
b110101010000010000000000 .
b110101010000010000000000 ="
#67000
b110101010000110000000000 !
b110101010000110000000000 @"
b10000000000 A"
b10000000000 V"
b10000000000 ?"
b10000000000 I"
b110101010000110000000000 .
b110101010000110000000000 ="
#68000
b0 A"
b0 V"
b111111111111100000000000 ?"
b111111111111100000000000 I"
b111111111100010000000000 !
b111111111100010000000000 @"
b111111111011110000000000 .
b111111111011110000000000 ="
b111111111100010000000000 /
b111111111100010000000000 >"
#69000
b111111111111110000000000 ?"
b111111111111110000000000 I"
b111111111100000000000000 .
b111111111100000000000000 ="
#70000
b111111111100010001011001 !
b111111111100010001011001 @"
b1011001 A"
b1011001 V"
b1011001 W"
b1000000000 J"
b0 ?"
b0 I"
b111111111100010000000000 .
b111111111100010000000000 ="
#71000
b111111111100100000000000 !
b111111111100100000000000 @"
b0 J"
b10000000000 A"
b10000000000 V"
b0 W"
b10000000000 ?"
b10000000000 I"
b111111111100100000000000 .
b111111111100100000000000 ="
#72000
b111111111100110000000000 !
b111111111100110000000000 @"
b100000000000 A"
b100000000000 V"
b100000000000 ?"
b100000000000 I"
b111111111100110000000000 .
b111111111100110000000000 ="
#73000
b1110000000 W"
b1111000000 J"
b1110000000 A"
b1110000000 V"
b1110000000 ?"
b1110000000 I"
b1111111111111110000000 !
b1111111111111110000000 @"
b1111111111111110000000 .
b1111111111111110000000 ="
b1111111111110000000000 /
b1111111111110000000000 >"
#74000
b0 J"
b10000000000 A"
b10000000000 V"
b0 W"
b10000000000 ?"
b10000000000 I"
b110000000000010000000000 !
b110000000000010000000000 @"
b110000000000010000000000 .
b110000000000010000000000 ="
b110000000000000000000000 /
b110000000000000000000000 >"
#75000
b0 A"
b0 V"
b111101111111111000000000 ?"
b111101111111111000000000 I"
b11001000000000 !
b11001000000000 @"
b111110000011000000000000 .
b111110000011000000000000 ="
b11001000000000 /
b11001000000000 >"
#76000
b10000000001000000000 A"
b10000000001000000000 V"
b10000000001000000000 ?"
b10000000001000000000 I"
b11001000000000 !
b11001000000000 @"
b11001000000000 .
b11001000000000 ="
b111110000011000000000000 /
b111110000011000000000000 >"
#77000
b101000 W"
b111000000 J"
b101000 A"
b101000 V"
b111111111111111110000000 ?"
b111111111111111110000000 I"
b111111111110110000101000 !
b111111111110110000101000 @"
b111111111110101110000000 .
b111111111110101110000000 ="
b111111111110110000000000 /
b111111111110110000000000 >"
#78000
b111111111111000000000000 !
b111111111111000000000000 @"
b0 J"
b10000000000 A"
b10000000000 V"
b0 W"
b10000000000 ?"
b10000000000 I"
b111111111111000000000000 .
b111111111111000000000000 ="
#79000
b111111111111010000000000 !
b111111111111010000000000 @"
b100000000000 A"
b100000000000 V"
b100000000000 ?"
b100000000000 I"
b111111111111010000000000 .
b111111111111010000000000 ="
#80000
b0 A"
b0 V"
b111111001100110000111000 ?"
b111111001100110000111000 I"
b111001011000111100011 !
b111001011000111100011 @"
b110010111111000011011 .
b110010111111000011011 ="
b111001011000111100011 /
b111001011000111100011 >"
#81000
b10000101001 A"
b10000101001 V"
b10000101001 ?"
b10000101001 I"
b111111110101011011101101 !
b111111110101011011101101 @"
b111111110101011011101101 .
b111111110101011011101101 ="
b111111110101001011000100 /
b111111110101001011000100 >"
#82000
b0 A"
b0 V"
b111111110110000110101111 ?"
b111111110110000110101111 I"
b111010010110110000101111 !
b111010010110110000101111 @"
b111010001100110111011110 .
b111010001100110111011110 ="
b111010010110110000101111 /
b111010010110110000101111 >"
#83000
b1001000110011 A"
b1001000110011 V"
b1001000110011 ?"
b1001000110011 I"
b1011011101001100011101 !
b1011011101001100011101 @"
b1011011101001100011101 .
b1011011101001100011101 ="
b1011011100000011101010 /
b1011011100000011101010 >"
#84000
b1011010111110111111 A"
b1011010111110111111 V"
b1011010111110111111 ?"
b1011010111110111111 I"
b101110000110101010 !
b101110000110101010 @"
b101110000110101010 .
b101110000110101010 ="
b111111010011000111101011 /
b111111010011000111101011 >"
#85000
b10111 W"
b110010111 J"
b10111 A"
b10111 V"
b111111111111111100101110 ?"
b111111111111111100101110 I"
b111111110101010001011 !
b111111110101010001011 @"
b111111110100110100010 .
b111111110100110100010 ="
b111111110101001110100 /
b111111110101001110100 >"
#86000
b0 J"
b0 A"
b0 V"
b0 W"
b111111111111000011001100 ?"
b111111111111000011001100 I"
b111110101111110010010 !
b111110101111110010010 @"
b111110101000001011110 .
b111110101000001011110 ="
b111110101111110010010 /
b111110101111110010010 >"
#87000
b111111100000100110001101 ?"
b111111100000100110001101 I"
b111111011111000011001001 !
b111111011111000011001001 @"
b111110111111101001010110 .
b111110111111101001010110 ="
b111111011111000011001001 /
b111111011111000011001001 >"
#88000
b111 J"
b111111111111110000001110 ?"
b111111111111110000001110 I"
b111101100011110000100000 !
b111101100011110000100000 @"
b111101100011100000101110 .
b111101100011100000101110 ="
b111101100011110000100000 /
b111101100011110000100000 >"
#89000
b0 J"
b111111111001100000010000 ?"
b111111111001100000010000 I"
b1011100011101010110010 !
b1011100011101010110010 @"
b1011011101001011000010 .
b1011011101001011000010 ="
b1011100011101010110010 /
b1011100011101010110010 >"
#90000
b10000010101 A"
b10000010101 V"
b10000010101 ?"
b10000010101 I"
b110111101101100001000100 !
b110111101101100001000100 @"
b110111101101100001000100 .
b110111101101100001000100 ="
b110111101101010000101111 /
b110111101101010000101111 >"
#91000
b111000001000010010 A"
b111000001000010010 V"
b111000001000010010 ?"
b111000001000010010 I"
b111000110011111111111000 !
b111000110011111111111000 @"
b111000110011111111111000 .
b111000110011111111111000 ="
b110111111011110111100110 /
b110111111011110111100110 >"
#92000
b100011110 W"
b1010001000 J"
b100011110 A"
b100011110 V"
b100010000 ?"
b100010000 I"
b11100000100101001111 !
b11100000100101001111 @"
b11100000100101000001 .
b11100000100101000001 ="
b11100000100000110001 /
b11100000100000110001 >"
#93000
b0 J"
b0 A"
b0 V"
b0 W"
b111111111111010001110001 ?"
b111111111111010001110001 I"
b111101001001110111010 !
b111101001001110111010 @"
b111101000100000101011 .
b111101000100000101011 ="
b111101001001110111010 /
b111101001001110111010 >"
#94000
b111111111111100100001010 ?"
b111111111111100100001010 I"
b110001011100001010001 !
b110001011100001010001 @"
b110001011000101011011 .
b110001011000101011011 ="
b110001011100001010001 /
b110001011100001010001 >"
#95000
b1111101000001100 A"
b1111101000001100 V"
b1111101000001100 ?"
b1111101000001100 I"
b1001110110101001110101 !
b1001110110101001110101 @"
b1001110110101001110101 .
b1001110110101001110101 ="
b1001100111000001101001 /
b1001100111000001101001 >"
#96000
b101111101111010 A"
b101111101111010 V"
b101111101111010 ?"
b101111101111010 I"
b111110001110111010001110 !
b111110001110111010001110 @"
b111110001110111010001110 .
b111110001110111010001110 ="
b111110001000111100010100 /
b111110001000111100010100 >"
#97000
b111011101010 A"
b111011101010 V"
b111011101010 ?"
b111011101010 I"
b10000110000001011 !
b10000110000001011 @"
b10000110000001011 .
b10000110000001011 ="
b1111110100100001 /
b1111110100100001 >"
#98000
b111101101 W"
b1011110101 J"
b111101101 A"
b111101101 V"
b111101010 ?"
b111101010 I"
b111000010100101000111111 !
b111000010100101000111111 @"
b111000010100101000111100 .
b111000010100101000111100 ="
b111000010100100001010010 /
b111000010100100001010010 >"
#99000
b0 J"
b110011110101111000 A"
b110011110101111000 V"
b0 W"
b110011110101111000 ?"
b110011110101111000 I"
b101000101010101101100 !
b101000101010101101100 @"
b101000101010101101100 .
b101000101010101101100 ="
b100010001011111110100 /
b100010001011111110100 >"
#100000
b1110 J"
b0 A"
b0 V"
b111111111111110000011100 ?"
b111111111111110000011100 I"
b110101100111001110111110 !
b110101100111001110111110 @"
b110101100110111111011010 .
b110101100110111111011010 ="
b110101100111001110111110 /
b110101100111001110111110 >"
#101000
b0 J"
b111111110101010110111111 ?"
b111111110101010110111111 I"
b1011100100110000001 !
b1011100100110000001 @"
b1010001111101000000 .
b1010001111101000000 ="
b1011100100110000001 /
b1011100100110000001 >"
#102000
b111111010110001110001110 ?"
b111111010110001110001110 I"
b1011000110000010100101 !
b1011000110000010100101 @"
b1010011100010000110011 .
b1010011100010000110011 ="
b1011000110000010100101 /
b1011000110000010100101 >"
#103000
b1111000000 A"
b1111000000 V"
b1111000000 W"
b1111100000 J"
b1111000001 ?"
b1111000001 I"
b110010001010011010 !
b110010001010011010 @"
b110010001010011011 .
b110010001010011011 ="
b110001111011011010 /
b110001111011011010 >"
#104000
b1 A"
b1 V"
b10111100 J"
b1 W"
b111111111111110101111001 ?"
b111111111111110101111001 I"
b1001111010001011010011 !
b1001111010001011010011 @"
b1001111010000001001011 .
b1001111010000001001011 ="
b1001111010001011010010 /
b1001111010001011010010 >"
#105000
b11010111 J"
b1 W"
b111111111111110110101111 ?"
b111111111111110110101111 I"
b110111001000011011101110 !
b110111001000011011101110 @"
b110111001000010010011100 .
b110111001000010010011100 ="
b110111001000011011101101 /
b110111001000011011101101 >"
#106000
b0 J"
b110011111011001100 A"
b110011111011001100 V"
b0 W"
b110011111011001100 ?"
b110011111011001100 I"
b111010000100111101011010 !
b111010000100111101011010 @"
b111010000100111101011010 .
b111010000100111101011010 ="
b111001010001000010001110 /
b111001010001000010001110 >"
#107000
b10 W"
b11110011 J"
b10 A"
b10 V"
b111111111111110111100111 ?"
b111111111111110111100111 I"
b11010111001100000000 !
b11010111001100000000 @"
b11010111000011100101 .
b11010111000011100101 ="
b11010111001011111110 /
b11010111001011111110 >"
#108000
b0 J"
b0 A"
b0 V"
b0 W"
b111111111101100111001000 ?"
b111111111101100111001000 I"
b111001011011011000011100 !
b111001011011011000011100 @"
b111001011000111111100100 .
b111001011000111111100100 ="
b111001011011011000011100 /
b111001011011011000011100 >"
#109000
b100011 A"
b100011 V"
b100011 W"
b110110101 J"
b111111111111111101101011 ?"
b111111111111111101101011 I"
b111110010101011001111 !
b111110010101011001111 @"
b111110010101000010111 .
b111110010101000010111 ="
b111110010101010101100 /
b111110010101010101100 >"
#110000
b0 A"
b0 V"
b1000100 J"
b0 W"
b111111111111110010001001 ?"
b111111111111110010001001 I"
b111110001001111010100011 !
b111110001001111010100011 @"
b111110001001101100101100 .
b111110001001101100101100 ="
b111110001001111010100011 /
b111110001001111010100011 >"
#111000
b0 J"
b111111100000011001111110 ?"
b111111100000011001111110 I"
b1010001000100110101 !
b1010001000100110101 @"
b110001011110110011 .
b110001011110110011 ="
b1010001000100110101 /
b1010001000100110101 >"
#112000
b1100101 Y
b1100101 n
b101000 =
b101000 R
b1011001 A"
b1011001 V"
b1011001 W"
b100111001 ~
b1000001100 b
b111000000 F
b110101010000100010010011 "
b110101010000100010010011 1
b110101010000100010010011 t
b1000000000 J"
b110 u
b110 ,"
b110 -"
b1100101 o
b101000 S
b110101010000100010001101 X
b110101010000100010001101 r
b111111111111111001110011 s
b111111111111111001110011 }
b11000 W
b11000 a
b111111111111111110000000 ;
b111111111111111110000000 E
b110101010000100000101000 <
b110101010000100000101000 V
b0 ?"
b0 I"
b1011001 !
b1011001 @"
b110101010000011100000000 q
b110101010000100001000000 U
b110101010000011110000000 9
b110101010000100000000000 :
b0 .
b0 ="
b0 /
b0 >"
#113000
b10000000000 Y
b10000000000 n
b0 ~
b0 b
b0 F
b111111111100110000000000 "
b111111111100110000000000 1
b111111111100110000000000 t
b10000000000 u
b10000000000 ,"
b0 -"
b0 o
b0 =
b0 R
b0 S
b111111111100100000000000 X
b111111111100100000000000 r
b10000000000 s
b10000000000 }
b10000000000 W
b10000000000 a
b111111111111110000000000 ;
b111111111111110000000000 E
b111111111100010000000000 <
b111111111100010000000000 V
b111111111100110000000000 q
b111111111100100000000000 U
b111111111100000000000000 9
b111111111100010000000000 :
#114000
b111111110011100000000000 "
b111111110011100000000000 1
b111111110011100000000000 t
b11100000000000 u
b11100000000000 ,"
b0 Y
b0 n
b111111110000000000000000 X
b111111110000000000000000 r
b11100000000000 s
b11100000000000 }
b111111111111001000000000 W
b111111111111001000000000 a
b111111110000000000000000 <
b111111110000000000000000 V
b111111110011100000000000 q
b111111101111001000000000 U
b111111101111110000000000 9
b111111110000000000000000 :
#115000
b11110000000000 "
b11110000000000 1
b11110000000000 t
b0 u
b0 ,"
b11110000000000 X
b11110000000000 r
b111101111111110000000000 s
b111101111111110000000000 }
b111101111111100000000000 W
b111101111111100000000000 a
b111101111111010000000000 ;
b111101111111010000000000 E
b11110000000000 <
b11110000000000 V
b111110000011100000000000 q
b111110000011010000000000 U
b111110000011000000000000 9
b11110000000000 :
#116000
b1100100000000 u
b1100100000000 ,"
b110000000011101100000000 "
b110000000011101100000000 1
b110000000011101100000000 t
b1111000000000 Y
b1111000000000 n
b10000000000 =
b10000000000 R
b110000000010001000000000 X
b110000000010001000000000 r
b1100100000000 s
b1100100000000 }
b1111000000000 W
b1111000000000 a
b10000000000 ;
b10000000000 E
b110000000000010000000000 <
b110000000000010000000000 V
b110000000011101100000000 q
b110000000010001000000000 U
b110000000000010000000000 9
b110000000000000000000000 :
