rtl/m10k log add/tb_log_add.vcd
$date
	Thu Apr 23 14:59:53 2026
$end
$version
	Icarus Verilog
$end
$timescale
	1ps
$end
$scope module tb_log_add $end
$var wire 32 ! result [31:0] $end
$var reg 32 " a [31:0] $end
$var reg 32 # b [31:0] $end
$var reg 1 $ clk $end
$var reg 1 % rst_n $end
$scope module dut $end
$var wire 32 & a [31:0] $end
$var wire 32 ' b [31:0] $end
$var wire 1 $ clk $end
$var wire 1 % rst_n $end
$var wire 32 ( lut_val_s2 [31:0] $end
$var reg 32 ) abs_diff_s1 [31:0] $end
$var reg 1 * force_zero_s2 $end
$var reg 32 + max_val_s1 [31:0] $end
$var reg 32 , max_val_s2 [31:0] $end
$var reg 32 - result [31:0] $end
$scope module lut_inst $end
$var wire 10 . addr [9:0] $end
$var wire 1 $ clk $end
$var reg 32 / data_out [31:0] $end
$upscope $end
$upscope $end
$upscope $end
$enddefinitions $end
$comment Show the parameter values. $end
$dumpall
$end
#0
$dumpvars
bx /
b0 .
b0 -
b0 ,
b0 +
0*
b0 )
bx (
b0 '
b0 &
0%
0$
b0 #
b0 "
b0 !
$end
#5000
b1011000101110010 (
b1011000101110010 /
1$
#10000
0$
#15000
b1011000101110010 !
b1011000101110010 -
1$
1%
#20000
0$
#25000
1$
#30000
0$
#35000
1$
#40000
0$
#45000
1$
#50000
0$
#55000
b101000000000000000000 "
b101000000000000000000 &
1$
#60000
0$
#65000
b100000000 .
b101000000000000000000 )
b101000000000000000000 +
1$
#70000
0$
#75000
b10010100101 (
b10010100101 /
1*
b101000000000000000000 ,
1$
#80000
0$
#85000
b101000000000000000000 !
b101000000000000000000 -
1$
#90000
0$
#95000
b11111111111111011000000000000000 #
b11111111111111011000000000000000 '
b11111111111111100000000000000000 "
b11111111111111100000000000000000 &
1$
#100000
0$
#105000
b100000 .
b1000000000000000 )
b11111111111111100000000000000000 +
1$
#110000
0$
#115000
b111100101011101 (
b111100101011101 /
0*
b11111111111111100000000000000000 ,
1$
#120000
0$
#125000
b11111111111111100111100101011101 !
b11111111111111100111100101011101 -
1$
